Change component parameters: Designator = "U400"; Footprint = "SOT-23 8"; UniqueID = "\BGDSIHAR\YJVNBDTU"
Change component parameters. Clean all parameters for all variants
Change component parameters (AddParameter): Name = "ComponentLink1Description"; Value = "Manufacturer URL"; VariantName = "[No Variations]"
Change component parameters (AddParameter): Name = "ComponentLink1URL"; Value = "http://www.analog.com/en/index.html"; VariantName = "[No Variations]"
Change component parameters (AddParameter): Name = "ComponentLink2Description"; Value = "Datasheet"; VariantName = "[No Variations]"
Change component parameters (AddParameter): Name = "ComponentLink2URL"; Value = "http://www.analog.com/static/imported-files/data_sheets/AD5662.pdf"; VariantName = "[No Variations]"
Change component parameters (AddParameter): Name = "ComponentLink3Description"; Value = "Package Specification"; VariantName = "[No Variations]"
Change component parameters (AddParameter): Name = "ComponentLink3URL"; Value = "http://www.analog.com/static/imported-files/packages/PKG_PDF/SOT-23(RJ)/RJ_8.pdf"; VariantName = "[No Variations]"
Change component parameters (AddParameter): Name = "ComponentLink4Description"; Value = "Product URL"; VariantName = "[No Variations]"
Change component parameters (AddParameter): Name = "ComponentLink4URL"; Value = "http://www.analog.com/en/digital-to-analog-converters/da-converters/ad5662/products/product.html"; VariantName = "[No Variations]"
Change component parameters (AddParameter): Name = "ComponentLink5Description"; Value = "Reference Design URL"; VariantName = "[No Variations]"
Change component parameters (AddParameter): Name = "ComponentLink5URL"; Value = "http://www.analog.com/en/digital-to-analog-converters/da-converters/ad5662/products/product.html#prod_cross_sell"; VariantName = "[No Variations]"
Change component parameters (AddParameter): Name = "datasheet link"; Value = "http://www.farnell.com/datasheets/1536633.pdf?_ga=2.55778025.355198308.1556569799-76341647.1555508079&_gac=1.258342520.1556737320.Cj0KCQjwh6XmBRDRARIsAKNInDH5Krw9ypHIMq2wGj5MGgKkgOEpjIj9kiNnw9lRl9FXfLKFW-_wfLMaAnaZEALw_wcB"; VariantName = "[No Variations]"
Change component parameters (AddParameter): Name = "farnell link"; Value = "https://nl.farnell.com/analog-devices/ad5662arjz-1500rl7/dac-16bit-125ksps-sot-23-8/dp/2460964?ost=AD5662ARJZ-1500RL7&ddkey=https%3Anl-NL%2FElement14_Netherlands%2Fsearch"; VariantName = "[No Variations]"
Change component parameters (AddParameter): Name = "Mfr. ref."; Value = "AD5662ARJZ-1500RL7"; VariantName = "[No Variations]"
Change component parameters (AddParameter): Name = "price each estimate"; Value = ""; VariantName = "[No Variations]"
Change component parameters: Designator = "U401"; Footprint = "SOT-23 8"; UniqueID = "\BGDSIHAR\GYNUMGKX"
Change component parameters. Clean all parameters for all variants
Change component parameters (AddParameter): Name = "ComponentLink1Description"; Value = "Manufacturer URL"; VariantName = "[No Variations]"
Change component parameters (AddParameter): Name = "ComponentLink1URL"; Value = "http://www.analog.com/en/index.html"; VariantName = "[No Variations]"
Change component parameters (AddParameter): Name = "ComponentLink2Description"; Value = "Datasheet"; VariantName = "[No Variations]"
Change component parameters (AddParameter): Name = "ComponentLink2URL"; Value = "http://www.analog.com/static/imported-files/data_sheets/AD5662.pdf"; VariantName = "[No Variations]"
Change component parameters (AddParameter): Name = "ComponentLink3Description"; Value = "Package Specification"; VariantName = "[No Variations]"
Change component parameters (AddParameter): Name = "ComponentLink3URL"; Value = "http://www.analog.com/static/imported-files/packages/PKG_PDF/SOT-23(RJ)/RJ_8.pdf"; VariantName = "[No Variations]"
Change component parameters (AddParameter): Name = "ComponentLink4Description"; Value = "Product URL"; VariantName = "[No Variations]"
Change component parameters (AddParameter): Name = "ComponentLink4URL"; Value = "http://www.analog.com/en/digital-to-analog-converters/da-converters/ad5662/products/product.html"; VariantName = "[No Variations]"
Change component parameters (AddParameter): Name = "ComponentLink5Description"; Value = "Reference Design URL"; VariantName = "[No Variations]"
Change component parameters (AddParameter): Name = "ComponentLink5URL"; Value = "http://www.analog.com/en/digital-to-analog-converters/da-converters/ad5662/products/product.html#prod_cross_sell"; VariantName = "[No Variations]"
Change component parameters (AddParameter): Name = "datasheet link"; Value = "http://www.farnell.com/datasheets/1536633.pdf?_ga=2.55778025.355198308.1556569799-76341647.1555508079&_gac=1.258342520.1556737320.Cj0KCQjwh6XmBRDRARIsAKNInDH5Krw9ypHIMq2wGj5MGgKkgOEpjIj9kiNnw9lRl9FXfLKFW-_wfLMaAnaZEALw_wcB"; VariantName = "[No Variations]"
Change component parameters (AddParameter): Name = "farnell link"; Value = "https://nl.farnell.com/analog-devices/ad5662arjz-1500rl7/dac-16bit-125ksps-sot-23-8/dp/2460964?ost=AD5662ARJZ-1500RL7&ddkey=https%3Anl-NL%2FElement14_Netherlands%2Fsearch"; VariantName = "[No Variations]"
Change component parameters (AddParameter): Name = "Mfr. ref."; Value = "AD5662ARJZ-1500RL7"; VariantName = "[No Variations]"
Change component parameters (AddParameter): Name = "price each estimate"; Value = ""; VariantName = "[No Variations]"
Added Pin To Net: NetName=SPI_DAC_CS1 Pin=U400-5
Added Pin To Net: NetName=SPI_DAC_SCLK Pin=U400-6
Added Pin To Net: NetName=SPI_DAC_DIN Pin=U400-7
Added Pin To Net: NetName=SPI_DAC_CS2 Pin=U401-5
Added Pin To Net: NetName=SPI_DAC_SCLK Pin=U401-6
Added Pin To Net: NetName=SPI_DAC_DIN Pin=U401-7
