Removed Pin From Net: NetName=GND Pin=J402_Fan-2
Removed Pin From Net: NetName=GND Pin=J403_Fan-2
Removed Pin From Net: NetName=5V Pin=J405_Fan-1
Removed Pin From Net: NetName=5V Pin=J406_Fan-1
Removed Pin From Net: NetName=5V Pin=J407_Fan-1
Removed Pin From Net: NetName=GND Pin=Q401_Fan-2
Removed Pin From Net: NetName=GND Pin=Q403_Fan-2
Removed Pin From Net: NetName=GND Pin=Q405_Fan-2
Removed Pin From Net: NetName=GND Pin=R406_Fan-1
Removed Pin From Net: NetName=GND Pin=R408_Fan-1
Removed Pin From Net: NetName=GND Pin=R410_Fan-1
Removed Pin From Net: NetName=+5V Pin=U400_Fan-1
Removed Pin From Net: NetName=+5V Pin=U400_Fan-2
Removed Pin From Net: NetName=GND Pin=U400_Fan-8
Removed Pin From Net: NetName=+5V Pin=U401_Fan-1
Removed Pin From Net: NetName=+5V Pin=U401_Fan-2
Removed Pin From Net: NetName=GND Pin=U401_Fan-8
Removed Pin From Net: NetName=GND Pin=U402_Fan-3
Removed Pin From Net: NetName=GND Pin=U402_Fan-5
Removed Pin From Net: NetName=+5V Pin=U402_Fan-8
Change Component Designator: OldDesignator=J402_Laser Driver NewDesignator=J402
Change Component Designator: OldDesignator=J403_Laser Driver NewDesignator=J403
Change Component Designator: OldDesignator=J405_Laser Driver NewDesignator=J405
Change Component Designator: OldDesignator=J406_Laser Driver NewDesignator=J406
Change Component Designator: OldDesignator=J407_Laser Driver NewDesignator=J407
Change Component Designator: OldDesignator=Q401_Laser Driver NewDesignator=Q401
Change Component Designator: OldDesignator=Q402_Laser Driver NewDesignator=Q402
Change Component Designator: OldDesignator=Q403_Laser Driver NewDesignator=Q403
Change Component Designator: OldDesignator=Q404_Laser Driver NewDesignator=Q404
Change Component Designator: OldDesignator=Q405_Laser Driver NewDesignator=Q405
Change Component Designator: OldDesignator=Q406_Laser Driver NewDesignator=Q406
Change Component Designator: OldDesignator=R400_Laser Driver NewDesignator=R400
Change Component Designator: OldDesignator=R401_Laser Driver NewDesignator=R401
Change Component Designator: OldDesignator=R402_Laser Driver NewDesignator=R402
Change Component Designator: OldDesignator=R403_Laser Driver NewDesignator=R403
Change Component Designator: OldDesignator=R405_Laser Driver NewDesignator=R405
Change Component Designator: OldDesignator=R406_Laser Driver NewDesignator=R406
Change Component Designator: OldDesignator=R407_Laser Driver NewDesignator=R407
Change Component Designator: OldDesignator=R408_Laser Driver NewDesignator=R408
Change Component Designator: OldDesignator=R409_Laser Driver NewDesignator=R409
Change Component Designator: OldDesignator=R410_Laser Driver NewDesignator=R410
Change Component Designator: OldDesignator=U400_Laser Driver NewDesignator=U400
Change Component Designator: OldDesignator=U401_Laser Driver NewDesignator=U401
Change Component Designator: OldDesignator=U402_Laser Driver NewDesignator=U402
Change Net Name : Old Net Name=+X_Laser Driver New Net Name=+X
Change Net Name : Old Net Name=+Y_Laser Driver New Net Name=+Y
Change Net Name : Old Net Name=-X_Laser Driver New Net Name=-X
Change Net Name : Old Net Name=-Y_Laser Driver New Net Name=-Y
Change Net Name : Old Net Name=NetJ405_Laser Driver_2 New Net Name=NetJ405_2
Change Net Name : Old Net Name=NetJ406_Laser Driver_2 New Net Name=NetJ406_2
Change Net Name : Old Net Name=NetJ407_Laser Driver_2 New Net Name=NetJ407_2
Change Net Name : Old Net Name=NetQ401_Laser Driver_1 New Net Name=NetQ401_1
Change Net Name : Old Net Name=NetQ401_Laser Driver_3 New Net Name=NetQ401_3
Change Net Name : Old Net Name=NetQ403_Laser Driver_1 New Net Name=NetQ403_1
Change Net Name : Old Net Name=NetQ403_Laser Driver_3 New Net Name=NetQ403_3
Change Net Name : Old Net Name=NetQ405_Laser Driver_1 New Net Name=NetQ405_1
Change Net Name : Old Net Name=NetQ405_Laser Driver_3 New Net Name=NetQ405_3
Change Net Name : Old Net Name=NetR400_Laser Driver_2 New Net Name=NetR400_2
Change Net Name : Old Net Name=NetR402_Laser Driver_2 New Net Name=NetR402_2
Change Net Name : Old Net Name=NetR405_Laser Driver_2 New Net Name=NetR405_2
Change Net Name : Old Net Name=NetR407_Laser Driver_2 New Net Name=NetR407_2
Change Net Name : Old Net Name=NetR409_Laser Driver_2 New Net Name=NetR409_2
Change Net Name : Old Net Name=NetU400_Laser Driver_5 New Net Name=NetU400_5
Change Net Name : Old Net Name=NetU400_Laser Driver_6 New Net Name=NetU400_6
Change Net Name : Old Net Name=NetU400_Laser Driver_7 New Net Name=NetU400_7
Change Net Name : Old Net Name=NetU401_Laser Driver_5 New Net Name=NetU401_5
