Added Component: Designator=J402(HDR1X3)
Add component. Clean all parameters for all variants
Add component (AddParameter): Name = "LatestRevisionDate"; Value = "17-Jul-2002"; VariantName = "[No Variations]"
Add component (AddParameter): Name = "LatestRevisionNote"; Value = "Re-released for DXP Platform."; VariantName = "[No Variations]"
Add component (AddParameter): Name = "Publisher"; Value = "Altium Limited"; VariantName = "[No Variations]"
Added Component: Designator=J403(HDR1X3)
Add component. Clean all parameters for all variants
Add component (AddParameter): Name = "LatestRevisionDate"; Value = "17-Jul-2002"; VariantName = "[No Variations]"
Add component (AddParameter): Name = "LatestRevisionNote"; Value = "Re-released for DXP Platform."; VariantName = "[No Variations]"
Add component (AddParameter): Name = "Publisher"; Value = "Altium Limited"; VariantName = "[No Variations]"
Added Pin To Net: NetName=+Y Pin=J402-1
Added Pin To Net: NetName=GND Pin=J402-2
Added Pin To Net: NetName=-Y Pin=J402-3
Added Pin To Net: NetName=+X Pin=J403-1
Added Pin To Net: NetName=GND Pin=J403-2
Added Pin To Net: NetName=NetJ403_3 Pin=J403-3
Added Member To Class: ClassName=Laser Driver Member=Component J402 Header 3
Added Member To Class: ClassName=Laser Driver Member=Component J403 Header 3
