Removed Pin From Net: NetName=SWO Pin=U100-13
Removed Pin From Net: NetName=T_JTMS Pin=U100-82
Removed Pin From Net: NetName=T_JTCK Pin=U100-85
Removed Pin From Net: NetName=PWMred Pin=U100-104
Removed Pin From Net: NetName=PWMgreen Pin=U100-105
Removed Pin From Net: NetName=PWMblue Pin=U100-109
Added Pin To Net: NetName=PWMred Pin=U100-103
Added Pin To Net: NetName=PWMgreen Pin=U100-104
Added Pin To Net: NetName=PWMblue Pin=U100-105
Added Pin To Net: NetName=T_JTMS Pin=U100-109
Added Pin To Net: NetName=T_JTCK Pin=U100-110
Added Pin To Net: NetName=SWO Pin=U100-133
