Removed Member From Class: ClassName=MCU-STM32 Member=D?
Removed Member From Class: ClassName=MCU-STM32 Member=P?
Removed Member From Class: ClassName=MCU-STM32 Member=U100
Removed Member From Class: ClassName=MCU-STM32 Member=U101
Removed Member From Class: ClassName=MCU-STM32 Member=X?
Added Component: Designator=R?(RES3216(1206))
Add component. Clean all parameters for all variants
Add component (AddParameter): Name = "farnell link"; Value = ""; VariantName = "[No Variations]"
Add component (AddParameter): Name = "Manufacturer ref"; Value = ""; VariantName = "[No Variations]"
Add component (AddParameter): Name = "value"; Value = "0R"; VariantName = "[No Variations]"
Added Pin To Net: NetName=3V3 Pin=R?-1
Added Pin To Net: NetName=3V3_STM Pin=R?-2
Change Class Name : Old Net Name=Front IO New Net Name=MCU-STM32
Change Class Name : Old Net Name=MCU-STM32 New Net Name=Front IO
Added Member To Class: ClassName=MCU-STM32 Member=Component B? SW PUSHBUTTON
Added Member To Class: ClassName=Front IO Member=Component B? SW PUSHBUTTON
Added Member To Class: ClassName=Front IO Member=Component B? SW PUSHBUTTON
Added Member To Class: ClassName=Front IO Member=Component B? SW PUSHBUTTON
Added Member To Class: ClassName=Front IO Member=Component B? SW PUSHBUTTON
Added Member To Class: ClassName=MCU-STM32 Member=Component C? Cap
Added Member To Class: ClassName=MCU-STM32 Member=Component C? Cap
Added Member To Class: ClassName=MCU-STM32 Member=Component C? Cap
Added Member To Class: ClassName=MCU-STM32 Member=Component C? Cap
Added Member To Class: ClassName=MCU-STM32 Member=Component C? Cap
Added Member To Class: ClassName=MCU-STM32 Member=Component C? cap pol
Added Member To Class: ClassName=MCU-STM32 Member=Component C? Cap
Added Member To Class: ClassName=MCU-STM32 Member=Component C? Cap
Added Member To Class: ClassName=MCU-STM32 Member=Component C? Cap
Added Member To Class: ClassName=MCU-STM32 Member=Component C? Cap
Added Member To Class: ClassName=MCU-STM32 Member=Component C? Cap
Added Member To Class: ClassName=MCU-STM32 Member=Component C? Cap
Added Member To Class: ClassName=MCU-STM32 Member=Component C? Cap
Added Member To Class: ClassName=MCU-STM32 Member=Component C? Cap
Added Member To Class: ClassName=STLINK Member=Component C? Cap
Added Member To Class: ClassName=STLINK Member=Component C? Cap
Added Member To Class: ClassName=STLINK Member=Component C? Cap
Added Member To Class: ClassName=STLINK Member=Component C? Cap
Added Member To Class: ClassName=STLINK Member=Component C? Cap
Added Member To Class: ClassName=STLINK Member=Component C? Cap
Added Member To Class: ClassName=STLINK Member=Component C? Cap
Added Member To Class: ClassName=STLINK Member=Component C? Cap
Added Member To Class: ClassName=MCU-STM32 Member=Component D? LED
Added Member To Class: ClassName=STLINK Member=Component D? LED
Added Member To Class: ClassName=MCU-STM32 Member=Component P? Header 5X2
Added Member To Class: ClassName=MCU-STM32 Member=Component R? res
Added Member To Class: ClassName=MCU-STM32 Member=Component R? res
Added Member To Class: ClassName=MCU-STM32 Member=Component R? res
Added Member To Class: ClassName=MCU-STM32 Member=Component R? res
Added Member To Class: ClassName=MCU-STM32 Member=Component R? res
Added Member To Class: ClassName=MCU-STM32 Member=Component R? res
Added Member To Class: ClassName=Front IO Member=Component R? res
Added Member To Class: ClassName=Front IO Member=Component R? res
Added Member To Class: ClassName=Front IO Member=Component R? res
Added Member To Class: ClassName=Front IO Member=Component R? res
Added Member To Class: ClassName=Front IO Member=Component R? res
Added Member To Class: ClassName=Front IO Member=Component R? res
Added Member To Class: ClassName=Front IO Member=Component R? res
Added Member To Class: ClassName=Front IO Member=Component R? res
Added Member To Class: ClassName=Front IO Member=Component R? res
Added Member To Class: ClassName=STLINK Member=Component R? res
Added Member To Class: ClassName=STLINK Member=Component R? res
Added Member To Class: ClassName=STLINK Member=Component R? res
Added Member To Class: ClassName=STLINK Member=Component R? res
Added Member To Class: ClassName=STLINK Member=Component R? res
Added Member To Class: ClassName=STLINK Member=Component R? res
Added Member To Class: ClassName=STLINK Member=Component R? res
Added Member To Class: ClassName=STLINK Member=Component R? res
Added Member To Class: ClassName=STLINK Member=Component R? res
Added Member To Class: ClassName=STLINK Member=Component R? res
Added Member To Class: ClassName=STLINK Member=Component R? res
Added Member To Class: ClassName=STLINK Member=Component R? res
Added Member To Class: ClassName=STLINK Member=Component R? res
Added Member To Class: ClassName=MCU-STM32 Member=Component U100 STM32H7
Added Member To Class: ClassName=MCU-STM32 Member=Component U101 SDCARD
Added Member To Class: ClassName=Front IO Member=Component U? OLED
Added Member To Class: ClassName=STLINK Member=Component U? USBLC6-2SC6
Added Member To Class: ClassName=MCU-STM32 Member=Component X? Q13FC13500003
